…
equations <- read_csv(here("data-raw/csv_database/equations.csv"))
references <- read_csv(here("data-raw/csv_database/references.csv"))
```

Now, equations and references are linked by refid.

``` r
left_join(equations, references)
```

    ## Joining, by = c("refid", "ref_id")

    ## # A tibble: 7,918 x 31
    ##    refid ref_id equation_allome~ equation_id equation_form dependent_varia~
    ##    <chr> <chr>  <chr>            <chr>       <chr>         <chr>           
    ##  1 jenk~ <NA>   10^(1.1891+1.41~ 2060ea      10^(a+b*(log~ Total abovegrou~
    ##  2 jenk~ <NA>   10^(1.1891+1.41~ 2060ea      10^(a+b*(log~ Total abovegrou~
    ##  3 jenk~ <NA>   10^(1.1891+1.41~ 2060ea      10^(a+b*(log~ Total abovegrou~
    ##  4 jenk~ <NA>   10^(1.1891+1.41~ 2060ea      10^(a+b*(log~ Total abovegrou~
    ##  5 jenk~ <NA>   10^(1.1891+1.41~ 2060ea      10^(a+b*(log~ Total abovegrou~
    ##  6 jenk~ <NA>   10^(1.1891+1.41~ 2060ea      10^(a+b*(log~ Total abovegrou~
    ##  7 jenk~ <NA>   10^(1.1891+1.41~ 2060ea      10^(a+b*(log~ Total abovegrou~
    ##  8 jenk~ <NA>   10^(1.1891+1.41~ 2060ea      10^(a+b*(log~ Total abovegrou~
    ##  9 jenk~ <NA>   10^(1.1891+1.41~ 2060ea      10^(a+b*(log~ Total abovegrou~
    ## 10 jenk~ <NA>   10^(1.1891+1.41~ 2060ea      10^(a+b*(log~ Total abovegrou~
    ## # ... with 7,908 more rows, and 25 more variables:
    ## #   independent_variable <chr>, allometry_specificity <chr>,
    ## #   geographic_area <chr>, dbh_min_cm <chr>, dbh_max_cm <chr>,
    ## #   sample_size <chr>, dbh_units_original <chr>,
    ## #   biomass_units_original <chr>, allometry_development_method <chr>,
    ## #   regression_model <chr>, other_equations_tested <chr>,
    ## #   log_biomass <int>, bias_corrected <int>, bias_correction_factor <chr>,
    ## #   notes_fitting_model <chr>, original_data_availability <int>,
    ## #   warning <chr>, ref_doi <chr>, ref_author <chr>, ref_year <int>,
…
