…
FIXME: Wrap into a single `add_site_sp()` function, or
`prepare_census()`, or `as_allodb_census()` (with corresponding
`new_allodb_census()`, and `validate_allodb_census()` – which is
responsible to check stuff that then no longer needs to be checked
downstream in **bmss**)?

``` r
scbi <- scbi_tree1 %>% 
  add_species(scbi_species) %>% 
  add_site(site = "SCBI")
#> Using site "scbi".

scbi %>% select(site, species, everything())
#> # A tibble: 40,283 x 22
#>    site  species sp    treeID stemID tag   StemTag quadrat    gx    gy
#>    <chr> <chr>   <chr>  <int>  <int> <chr> <chr>   <chr>   <dbl> <dbl>
#>  1 scbi  Linder~ libe       1      1 10079 1       0104     3.70  73  
#>  2 scbi  Linder~ libe       2      2 10168 1       0103    17.3   58.9
#>  3 scbi  Linder~ libe       3      3 10567 1       0110     9    197. 
#>  4 scbi  Nyssa ~ nysy       4      4 12165 1       0122    14.2  428. 
#>  5 scbi  Hamame~ havi       5      5 12190 1       0122     9.40 436. 
#>  6 scbi  Hamame~ havi       6      6 12192 1       0122     1.30 434  
#>  7 scbi  Uniden~ unk        7      7 12212 1       0123    17.8  447. 
#>  8 scbi  Linder~ libe       8      8 12261 1       0125    18    484. 
#>  9 scbi  Viburn~ vipr       9      9 12456 1       0130    18    598. 
#> 10 scbi  Asimin~ astr      10     10 12551 1       0132     5.60 628. 
#> # ... with 40,273 more rows, and 12 more variables: DBHID <int>,
#> #   CensusID <int>, dbh <dbl>, pom <chr>, hom <dbl>, ExactDate <chr>,
#> #   DFstatus <chr>, codes <chr>, nostems <dbl>, date <dbl>, status <chr>,
#> #   agb <dbl>
```
FIXME: Modify `get_allometry()`:

  - Use `master()` by default.
  - Rename as needed:
      - `eqn` = `equation_allometry`,
      - `eqn_source` = `eqn_source`
      - `eqn_type` = `allometry_specificity`

<!-- end list -->

``` r
get_allometry(scbi, "site", "species", "dbh")
#> You gave no custom equations.
#>   * Using default equations.
#> # A tibble: 40,283 x 6
#>    site  sp                     dbh eqn   eqn_source eqn_type
#>    <chr> <chr>                <dbl> <chr> <chr>      <chr>   
#>  1 scbi  Lindera benzoin       27.9 <NA>  <NA>       <NA>    
#>  2 scbi  Lindera benzoin       23.7 <NA>  <NA>       <NA>    
#>  3 scbi  Lindera benzoin       22.2 <NA>  <NA>       <NA>    
#>  4 scbi  Nyssa sylvatica      135   <NA>  <NA>       <NA>    
#>  5 scbi  Hamamelis virginiana  87   <NA>  <NA>       <NA>    
#>  6 scbi  Hamamelis virginiana  22.5 <NA>  <NA>       <NA>    
#>  7 scbi  Unidentified unk      42.6 <NA>  <NA>       <NA>    
#>  8 scbi  Lindera benzoin       51.4 <NA>  <NA>       <NA>    
#>  9 scbi  Viburnum prunifolium  38.3 <NA>  <NA>       <NA>    
#> 10 scbi  Asimina triloba       14.5 <NA>  <NA>       <NA>    
#> # ... with 40,273 more rows
```
…
