…
unique(invalid$messages)
```

    ## [1] "object 'dba' not found" "object 'BA' not found"

Issue with ‘dba’.

``` r
filter(invalid, grepl("dba", messages))
```

    ## # A tibble: 39 x 2
    ##    equation_allometry messages              
    ##    <chr>              <chr>                 
    ##  1 38.111*(dba^2.9)   object 'dba' not found
    ##  2 38.111*(dba^2.9)   object 'dba' not found
    ##  3 51.996*(dba^2.77)  object 'dba' not found
    ##  4 37.637*(dba^2.779) object 'dba' not found
    ##  5 43.992*(dba^2.86)  object 'dba' not found
    ##  6 43.992*(dba^2.86)  object 'dba' not found
    ##  7 43.992*(dba^2.86)  object 'dba' not found
    ##  8 29.615*(dba^3.243) object 'dba' not found
    ##  9 29.615*(dba^3.243) object 'dba' not found
    ## 10 29.615*(dba^3.243) object 'dba' not found
    ## # ... with 29 more rows
…
