…
These data seems to be what I need. Can we add a variable `equation` -- relating dbh with biomass based on `wsg` and `E`?

```
left_join(allodb::site.info, allodb::WSG) %>% 
  select(site, genus, species, wsg, E)
#> Joining, by = "site"
#> Warning: Column `site` joining factor and character vector, coercing into
#> character vector
#> # A tibble: 8,600 x 5

#>        site   genus     species   wsg       E
#>       <chr>   <chr>       <chr> <dbl>   <dbl>
#> 1 amacayacu Abarema barbouriana 0.567 -0.0793
#> 2 amacayacu Abarema     jupunba 0.585 -0.0793
#> 3 amacayacu   Abuta grandifolia 0.450 -0.0793
#> # ... with 8,597 more rows
```
…
