Modify the original equation table — new_equations • allodb
…
    A new equation dataframe (tibble::tibble() object).

    Examples

new_equations(
  new_taxa = "Faga",
  new_allometry = "exp(-2+log(dbh)*2.5)",
  new_coords = c(-0.07, 46.11),
  new_min_dbh = 5,
  new_max_dbh = 50,
  new_sample_size = 50
)

#> # A tibble: 478 × 15
#>    equation_id equation_taxa  equation_allome… independent_var… dependent_varia…
#>    <chr>       <chr>          <chr>            <chr>            <chr>           
#>  1 726f1d      Larix laricina 10^(2.648+0.715… DBH              Total abovegrou…
#>  2 a4d879      Acer saccharum 10^(1.2315+1.63… DBH              Total abovegrou…
#>  3 b9ebe4      Alnus rubra    exp(5.13118+2.1… DBH              Whole tree (abo…
#>  4 5e2dea      Viburnum lant… 29.615*((1.488+… DBH              Total abovegrou…
#>  5 21800b      Pinus strobus  exp(5.2831+2.03… DBH              Total abovegrou…
#>  6 1257b1      Abies          exp(3.1689+2.68… DBH              Total abovegrou…
#>  7 9e2124      Populus david… 10^(1.826+2.558… DBH              Total abovegrou…
#>  8 74d0ce      Ostrya virgin… exp(4.89+2.3*lo… DBH              Total abovegrou…
#>  9 94f593      Liriodendron … 10^(0.8306+1.52… DBH              Total abovegrou…
#> 10 8c94e8      Nyssa sylvati… 10^(1.1468+1.48… DBH              Total abovegrou…
#> # … with 468 more rows, and 10 more variables: long <chr>, lat <chr>,
#> #   koppen <chr>, dbh_min_cm <dbl>, dbh_max_cm <dbl>, sample_size <dbl>,
#> #   dbh_units_original <chr>, dbh_unit_cf <dbl>, output_units_original <chr>,
#> #   output_units_cf <dbl>
…
