Resample allodb equations to calibrate new allometries. — resample_agb • allodb
…
    See also

    weight_allom(), new_equations()

    Examples

resample_agb(
  genus = "Quercus",
  species = "rubra",
  coords = c(-78.2, 38.9)
)

#> # A tibble: 9,973 × 3
#>    equation_id   dbh   agb
#>    <chr>       <dbl> <dbl>
#>  1 0cb0ce       23.2  249.
#>  2 0cb0ce       25.3  314.
#>  3 0cb0ce       23.3  251.
#>  4 0cb0ce       17.0  106.
#>  5 0cb0ce       17.9  122.
#>  6 0cb0ce       20.8  184.
#>  7 0cb0ce       18.0  124.
#>  8 0cb0ce       22.2  220.
#>  9 0cb0ce       19.8  162.
#> 10 0cb0ce       17.3  111.
#> # … with 9,963 more rows
…
