…
      .f
      A dplyr::*_join() function -- e.g. dplyr::left_join()
dplyr::full_join() dplyr::inner_join() (default).

    Value

    A dataframe.

    Examples

equations <- pick_equations(allodb::scbi_species, "species")
add_equation(census = allodb::scbi_tree1, equations)
#> Joining, by = "sp"
#> # A tibble: 56,765 x 21
#>    treeID stemID tag   StemTag sp    quadrat    gx    gy DBHID CensusID   dbh
#>     <int>  <int> <chr> <chr>   <chr> <chr>   <dbl> <dbl> <int>    <int> <dbl>
#>  1      4      4 12165 1       nysy  0122     14.2 428.      7        1  135 
#>  2      4      4 12165 1       nysy  0122     14.2 428.      7        1  135 
#>  3      4      4 12165 1       nysy  0122     14.2 428.      7        1  135 
#>  4      4      4 12165 1       nysy  0122     14.2 428.      7        1  135 
#>  5      4      4 12165 1       nysy  0122     14.2 428.      7        1  135 
#>  6     21     21 20064 1       litu  0217     31.4 322.     69        1  232.
#>  7     21     21 20064 1       litu  0217     31.4 322.     69        1  232.
#>  8     21     21 20064 1       litu  0217     31.4 322.     69        1  232.
#>  9     21     21 20064 1       litu  0217     31.4 322.     69        1  232.
#> 10     29     29 20151 1       acru  0203     31.5  45.8   130        1  326.
#> # ... with 56,755 more rows, and 10 more variables: pom <chr>, hom <dbl>,
#> #   ExactDate <chr>, DFstatus <chr>, codes <chr>, nostems <dbl>, date <dbl>,
#> #   status <chr>, agb <dbl>, equation_allometry <chr>
…
