…
    Value

    A dataframe.

    See also

    dplyr::full_join().

Other functions to interact with the database: as_allodb

    Examples

# Defaults to use `dplyr::full_join()`
master()
#> # A tibble: 663 x 48
#>    equation_id equation_form equation_allome~ dependent_varia~ independent_var~
#>    <chr>       <chr>         <chr>            <chr>            <chr>           
#>  1 2060ea      10^(a+b*(log~ 10^(1.1891+1.41~ Total abovegrou~ DBH             
#>  2 2060ea      10^(a+b*(log~ 10^(1.1891+1.41~ Total abovegrou~ DBH             
#>  3 a4d879      10^(a+b*(log~ 10^(1.2315+1.63~ Total abovegrou~ DBH             
#>  4 a4d879      10^(a+b*(log~ 10^(1.2315+1.63~ Total abovegrou~ DBH             
#>  5 c59e03      exp(a+b*ln(D~ exp(7.217+1.514~ Stem biomass (w~ DBH             
#>  6 c59e03      exp(a+b*ln(D~ exp(7.217+1.514~ Stem biomass (w~ DBH             
#>  7 c59e03      exp(a+b*ln(D~ exp(7.217+1.514~ Stem biomass (w~ DBH             
#>  8 c59e03      exp(a+b*ln(D~ exp(7.217+1.514~ Stem biomass (w~ DBH             
#>  9 c59e03      exp(a+b*ln(D~ exp(7.217+1.514~ Stem biomass (w~ DBH             
#> 10 c59e03      exp(a+b*ln(D~ exp(7.217+1.514~ Stem biomass (w~ DBH             
#> # ... with 653 more rows, and 43 more variables: allometry_specificity.x <chr>,
#> #   geographic_area <chr>, dbh_min_cm.x <chr>, dbh_max_cm.x <chr>,
#> #   sample_size <chr>, dbh_units_original <chr>, biomass_units_original <chr>,
#> #   allometry_development_method <chr>, regression_model <chr>,
#> #   other_equations_tested <chr>, log_biomass <chr>, bias_corrected <chr>,
#> #   bias_correction_factor <chr>, notes_fitting_model <chr>,
#> #   original_data_availability <chr>, warning <chr>, ref_id <chr>, site <chr>,
#> #   family <chr>, species <chr>, species_code <chr>, life_form <chr>,
#> #   dependent_variable_biomass_component.y <chr>, equation_group <chr>,
#> #   equation_taxa <chr>, allometry_specificity.y <chr>, proxy_species <chr>,
#> #   dbh_min_cm.y <chr>, dbh_max_cm.y <chr>, notes_on_species <chr>,
#> #   wsg_id <chr>, wsg_specificity <chr>, id <chr>, Site <chr>, lat <chr>,
#> #   long <chr>, UTM_Zone <chr>, UTM_X <chr>, UTM_Y <chr>, intertropical <chr>,
#> #   size.ha <chr>, E <chr>, wsg.site.name <chr>

# But you can use other joins
master(.f = dplyr::left_join)
#> # A tibble: 600 x 48
#>    equation_id equation_form equation_allome~ dependent_varia~ independent_var~
#>    <chr>       <chr>         <chr>            <chr>            <chr>           
#>  1 2060ea      10^(a+b*(log~ 10^(1.1891+1.41~ Total abovegrou~ DBH             
#>  2 2060ea      10^(a+b*(log~ 10^(1.1891+1.41~ Total abovegrou~ DBH             
#>  3 a4d879      10^(a+b*(log~ 10^(1.2315+1.63~ Total abovegrou~ DBH             
#>  4 a4d879      10^(a+b*(log~ 10^(1.2315+1.63~ Total abovegrou~ DBH             
#>  5 c59e03      exp(a+b*ln(D~ exp(7.217+1.514~ Stem biomass (w~ DBH             
#>  6 c59e03      exp(a+b*ln(D~ exp(7.217+1.514~ Stem biomass (w~ DBH             
#>  7 c59e03      exp(a+b*ln(D~ exp(7.217+1.514~ Stem biomass (w~ DBH             
#>  8 c59e03      exp(a+b*ln(D~ exp(7.217+1.514~ Stem biomass (w~ DBH             
#>  9 c59e03      exp(a+b*ln(D~ exp(7.217+1.514~ Stem biomass (w~ DBH             
#> 10 c59e03      exp(a+b*ln(D~ exp(7.217+1.514~ Stem biomass (w~ DBH             
#> # ... with 590 more rows, and 43 more variables: allometry_specificity.x <chr>,
#> #   geographic_area <chr>, dbh_min_cm.x <chr>, dbh_max_cm.x <chr>,
#> #   sample_size <chr>, dbh_units_original <chr>, biomass_units_original <chr>,
#> #   allometry_development_method <chr>, regression_model <chr>,
#> #   other_equations_tested <chr>, log_biomass <chr>, bias_corrected <chr>,
#> #   bias_correction_factor <chr>, notes_fitting_model <chr>,
#> #   original_data_availability <chr>, warning <chr>, ref_id <chr>, site <chr>,
#> #   family <chr>, species <chr>, species_code <chr>, life_form <chr>,
#> #   dependent_variable_biomass_component.y <chr>, equation_group <chr>,
…
